<?xml version="1.0" encoding="UTF-8"?><OAI-PMH xsi:schemaLocation="http://www.openarchives.org/OAI/2.0/ http://www.openarchives.org/OAI/2.0/OAI-PMH.xsd" xmlns:ex="http://exslt.org/dates-and-times" xmlns:exslt="http://exslt.org/common" xmlns:xsi="http://www.w3.org/2001/XMLSchema-instance" xmlns="http://www.openarchives.org/OAI/2.0/">
<responseDate>2018-02-12T20:59:20Z</responseDate>
<request verb="ListIdentifiers">http://archive-it.org/oai/organizations?verb=ListIdentifiers&amp;metadataPrefix=oai_dc</request>
<ListIdentifiers>
<header>
<identifier>http://wayback.archive-it.org/6602/*/http://1000conversations.ca/</identifier>
<datestamp>2017-04-24T18:28:19Z</datestamp>
<setSpec>collection:6602</setSpec>
</header>
<header>
<identifier>http://wayback.archive-it.org/6602/*/http://100ansdepertes.ca/fr/</identifier>
<datestamp>2017-04-25T18:36:18Z</datestamp>
<setSpec>collection:6602</setSpec>
</header>
<header>
<identifier>http://wayback.archive-it.org/6602/*/http://100yearsofloss.ca</identifier>
<datestamp>2017-04-24T18:28:16Z</datestamp>
<setSpec>collection:6602</setSpec>
</header>
<header>
<identifier>http://wayback.archive-it.org/6602/*/http://ahf2.ca/</identifier>
<datestamp>2017-04-24T18:28:16Z</datestamp>
<setSpec>collection:6602</setSpec>
</header>
<header>
<identifier>http://wayback.archive-it.org/6602/*/http://apihtawikosisan.com/</identifier>
<datestamp>2017-04-24T18:28:16Z</datestamp>
<setSpec>collection:6602</setSpec>
</header>
<header>
<identifier>http://wayback.archive-it.org/6602/*/http://apihtawikosisan.com/2012/01/residential-schools-an-introduction/</identifier>
<datestamp>2017-04-24T18:28:16Z</datestamp>
<setSpec>collection:6602</setSpec>
</header>
<header>
<identifier>http://wayback.archive-it.org/6602/*/http://apihtawikosisan.com/aboriginal-issue-primers/</identifier>
<datestamp>2017-04-24T18:45:18Z</datestamp>
<setSpec>collection:6602</setSpec>
</header>
<header>
<identifier>http://wayback.archive-it.org/6602/*/http://aptn.ca/news/2014/03/30/fading-memory-fragmented-records-passage-time-keep-residential-school-truths-hidden-forever/</identifier>
<datestamp>2017-04-24T18:28:16Z</datestamp>
<setSpec>collection:6602</setSpec>
</header>
<header>
<identifier>http://wayback.archive-it.org/6602/*/http://archives.siwel.info/Le-Canada-demande-pardon-aux-peuples-autochtones-L-indescriptible-histoire-des-pensionnats-indiens_a8202.html</identifier>
<datestamp>2017-05-11T15:21:01Z</datestamp>
<setSpec>collection:6602</setSpec>
</header>
<header>
<identifier>http://wayback.archive-it.org/6602/*/http://blog.legalaid.on.ca/2015/07/08/apologies-are-only-the-start-a-reflection-on-the-release-of-the-report-by-the-truth-and-reconciliation-commission/</identifier>
<datestamp>2017-04-24T18:28:16Z</datestamp>
<setSpec>collection:6602</setSpec>
</header>
<header>
<identifier>http://wayback.archive-it.org/6602/*/http://blogs.u-paris10.fr/article/commission-de-verite-et-reconciliation-du-canada-faire-le-deuil-dun-genocide-culturel-3</identifier>
<datestamp>2017-05-11T15:20:50Z</datestamp>
<setSpec>collection:6602</setSpec>
</header>
<header>
<identifier>http://wayback.archive-it.org/6602/*/http://ceremonies.ubc.ca/reconciliation-pole/</identifier>
<datestamp>2017-05-11T15:20:51Z</datestamp>
<setSpec>collection:6602</setSpec>
</header>
<header>
<identifier>http://wayback.archive-it.org/6602/*/http://encyclopediecanadienne.com/fr/article/pensionnats/</identifier>
<datestamp>2017-04-25T18:36:18Z</datestamp>
<setSpec>collection:6602</setSpec>
</header>
<header>
<identifier>http://wayback.archive-it.org/6602/*/http://esask.uregina.ca/entry/residential_schools.html</identifier>
<datestamp>2017-04-24T18:28:16Z</datestamp>
<setSpec>collection:6602</setSpec>
</header>
<header>
<identifier>http://wayback.archive-it.org/6602/*/http://eugenicsarchive.ca/discover/institutions/</identifier>
<datestamp>2017-04-24T18:28:16Z</datestamp>
<setSpec>collection:6602</setSpec>
</header>
<header>
<identifier>http://wayback.archive-it.org/6602/*/http://fadg.ca</identifier>
<datestamp>2017-04-25T18:36:18Z</datestamp>
<setSpec>collection:6602</setSpec>
</header>
<header>
<identifier>http://wayback.archive-it.org/6602/*/http://fondationautochtonedelespoir.ca/</identifier>
<datestamp>2017-04-25T18:36:18Z</datestamp>
<setSpec>collection:6602</setSpec>
</header>
<header>
<identifier>http://wayback.archive-it.org/6602/*/http://forgottenmetis.ca/</identifier>
<datestamp>2017-04-24T18:28:16Z</datestamp>
<setSpec>collection:6602</setSpec>
</header>
<header>
<identifier>http://wayback.archive-it.org/6602/*/http://ici.radio-canada.ca/nouvelle/1024166/quete-gord-downie-secret-path-chanie-wenjack-tragically-hip</identifier>
<datestamp>2017-05-11T15:21:01Z</datestamp>
<setSpec>collection:6602</setSpec>
</header>
<header>
<identifier>http://wayback.archive-it.org/6602/*/http://ici.radio-canada.ca/nouvelle/600827/pensionnats-autochtones-deces-etude</identifier>
<datestamp>2017-05-11T15:21:01Z</datestamp>
<setSpec>collection:6602</setSpec>
</header>
<header>
<identifier>http://wayback.archive-it.org/6602/*/http://ici.radio-canada.ca/nouvelle/610862/pensionnats-autochtones-survivants</identifier>
<datestamp>2017-05-11T15:21:01Z</datestamp>
<setSpec>collection:6602</setSpec>
</header>
<header>
<identifier>http://wayback.archive-it.org/6602/*/http://ici.radio-canada.ca/nouvelle/610955/pensionnats-autochtones-morts</identifier>
<datestamp>2017-05-11T15:21:01Z</datestamp>
<setSpec>collection:6602</setSpec>
</header>
<header>
<identifier>http://wayback.archive-it.org/6602/*/http://ici.radio-canada.ca/nouvelle/660354/commission-verite-reconciliation-fin-temoignages</identifier>
<datestamp>2017-05-11T15:20:59Z</datestamp>
<setSpec>collection:6602</setSpec>
</header>
<header>
<identifier>http://wayback.archive-it.org/6602/*/http://ici.radio-canada.ca/nouvelle/672655/pensionnats-indiens-confidnentialite</identifier>
<datestamp>2017-05-11T15:21:01Z</datestamp>
<setSpec>collection:6602</setSpec>
</header>
<header>
<identifier>http://wayback.archive-it.org/6602/*/http://ici.radio-canada.ca/nouvelle/679360/pensionnats-autochtones-indemnisations-destruction-documents</identifier>
<datestamp>2017-05-11T15:21:09Z</datestamp>
<setSpec>collection:6602</setSpec>
</header>
<header>
<identifier>http://wayback.archive-it.org/6602/*/http://ici.radio-canada.ca/nouvelle/695444/ottawa-lacunes-bibliotheque-archives-reaction-saganash</identifier>
<datestamp>2017-05-11T15:20:58Z</datestamp>
<setSpec>collection:6602</setSpec>
</header>
<header>
<identifier>http://wayback.archive-it.org/6602/*/http://ici.radio-canada.ca/nouvelle/723529/pensionnats-autochtones-genocide-culturel-selon-commission-verite-reconciliation</identifier>
<datestamp>2017-05-11T15:21:03Z</datestamp>
<setSpec>collection:6602</setSpec>
</header>
<header>
<identifier>http://wayback.archive-it.org/6602/*/http://ici.radio-canada.ca/nouvelle/723555/pensionnats-autochtones-nord-reactions</identifier>
<datestamp>2017-05-11T15:20:56Z</datestamp>
<setSpec>collection:6602</setSpec>
</header>
<header>
<identifier>http://wayback.archive-it.org/6602/*/http://ici.radio-canada.ca/nouvelle/723612/commission-verite-reconciliation-autochtones-reactions</identifier>
<datestamp>2017-05-11T15:21:03Z</datestamp>
<setSpec>collection:6602</setSpec>
</header>
<header>
<identifier>http://wayback.archive-it.org/6602/*/http://ici.radio-canada.ca/nouvelle/750986/cours-obligatoire-autochtone-universite-winnipeg</identifier>
<datestamp>2017-05-11T15:21:01Z</datestamp>
<setSpec>collection:6602</setSpec>
</header>
<header>
<identifier>http://wayback.archive-it.org/6602/*/http://ici.radio-canada.ca/nouvelle/755245/rapport-commission-verite-reconciliation-autochtones-pensionnats-morts</identifier>
<datestamp>2017-05-11T15:21:01Z</datestamp>
<setSpec>collection:6602</setSpec>
</header>
<header>
<identifier>http://wayback.archive-it.org/6602/*/http://ici.radio-canada.ca/nouvelle/755368/autochtones-rapport-reactions-trudeau-commissaires-suivi</identifier>
<datestamp>2017-05-11T15:21:01Z</datestamp>
<setSpec>collection:6602</setSpec>
</header>
<header>
<identifier>http://wayback.archive-it.org/6602/*/http://ici.radio-canada.ca/nouvelle/770094/revision-enseignement-histoire-secondaire-sebastien-proulx</identifier>
<datestamp>2017-05-11T15:20:53Z</datestamp>
<setSpec>collection:6602</setSpec>
</header>
<header>
<identifier>http://wayback.archive-it.org/6602/*/http://ici.radio-canada.ca/nouvelle/775253/commission-royale-peuples-autochtones-20-ans-plus-tard-conditions-de-vie</identifier>
<datestamp>2017-05-11T15:20:53Z</datestamp>
<setSpec>collection:6602</setSpec>
</header>
<header>
<identifier>http://wayback.archive-it.org/6602/*/http://ici.radio-canada.ca/nouvelle/780619/pensionnats-autochtones-ottawa-acadie-terre-neuve-et-labrador</identifier>
<datestamp>2017-05-11T15:20:54Z</datestamp>
<setSpec>collection:6602</setSpec>
</header>
<header>
<identifier>http://wayback.archive-it.org/6602/*/http://ici.radio-canada.ca/nouvelle/784303/commission-verite-reconciliation-reponse-officielle-ontario</identifier>
<datestamp>2017-05-11T15:20:52Z</datestamp>
<setSpec>collection:6602</setSpec>
</header>
<header>
<identifier>http://wayback.archive-it.org/6602/*/http://ici.radio-canada.ca/nouvelle/788641/pensionnat-autochtone-minute-patrimoine-chanie-wenjack-histoire-canada</identifier>
<datestamp>2017-05-11T15:21:12Z</datestamp>
<setSpec>collection:6602</setSpec>
</header>
<header>
<identifier>http://wayback.archive-it.org/6602/*/http://ici.radio-canada.ca/nouvelle/802110/gord-downie-disque-roman-film-pensionnats-autochtones</identifier>
<datestamp>2017-05-11T15:21:12Z</datestamp>
<setSpec>collection:6602</setSpec>
</header>
<header>
<identifier>http://wayback.archive-it.org/6602/*/http://ici.radio-canada.ca/nouvelle/811342/autochtone-pensionnat-temoignage-verite-reconciliation</identifier>
<datestamp>2017-05-11T15:20:52Z</datestamp>
<setSpec>collection:6602</setSpec>
</header>
<header>
<identifier>http://wayback.archive-it.org/6602/*/http://ici.radio-canada.ca/nouvelles/special/2016/10/pensionnats-autochtones-resistance-histoire-meconnue-abitibi/index.html?isAutoPlay=1</identifier>
<datestamp>2017-05-11T15:20:54Z</datestamp>
<setSpec>collection:6602</setSpec>
</header>
<header>
<identifier>http://wayback.archive-it.org/6602/*/http://ici.radio-canada.ca/sujet/veritereconciliation/</identifier>
<datestamp>2017-04-25T18:36:21Z</datestamp>
<setSpec>collection:6602</setSpec>
</header>
<header>
<identifier>http://wayback.archive-it.org/6602/*/http://indigenousfoundations.arts.ubc.ca/home/government-policy/the-residential-school-system.html</identifier>
<datestamp>2017-04-24T18:28:12Z</datestamp>
<setSpec>collection:6602</setSpec>
</header>
<header>
<identifier>http://wayback.archive-it.org/6602/*/http://irititja.com</identifier>
<datestamp>2017-04-24T18:28:12Z</datestamp>
<setSpec>collection:6602</setSpec>
</header>
<header>
<identifier>http://wayback.archive-it.org/6602/*/http://irsi.aboriginal.ubc.ca/</identifier>
<datestamp>2017-04-24T18:28:12Z</datestamp>
<setSpec>collection:6602</setSpec>
</header>
<header>
<identifier>http://wayback.archive-it.org/6602/*/http://irsss.ca/</identifier>
<datestamp>2017-04-24T18:28:12Z</datestamp>
<setSpec>collection:6602</setSpec>
</header>
<header>
<identifier>http://wayback.archive-it.org/6602/*/http://leaderpost.com/opinion/columnists/after-truth-and-reconciliation-commission-report-we-need-action/</identifier>
<datestamp>2017-04-24T18:28:12Z</datestamp>
<setSpec>collection:6602</setSpec>
</header>
<header>
<identifier>http://wayback.archive-it.org/6602/*/http://lesenfantsdevenus.ca/fr</identifier>
<datestamp>2017-04-25T18:36:21Z</datestamp>
<setSpec>collection:6602</setSpec>
</header>
<header>
<identifier>http://wayback.archive-it.org/6602/*/http://missinghistory.ca/</identifier>
<datestamp>2017-04-24T18:28:12Z</datestamp>
<setSpec>collection:6602</setSpec>
</header>
<header>
<identifier>http://wayback.archive-it.org/6602/*/http://montrealgazette.com/news/aboriginal-leader-phil-fontaine-believes-in-reconciliation?utm_content=buffer3d99c&amp;utm_medium=social&amp;utm_source=facebook.com&amp;utm_campaign=buffer</identifier>
<datestamp>2017-04-24T18:28:12Z</datestamp>
<setSpec>collection:6602</setSpec>
</header>
<header>
<identifier>http://wayback.archive-it.org/6602/*/http://nctr.ca</identifier>
<datestamp>2017-04-24T18:28:12Z</datestamp>
<setSpec>collection:6602</setSpec>
</header>
<header>
<identifier>http://wayback.archive-it.org/6602/*/http://nctr.ca/fr/</identifier>
<datestamp>2017-04-25T18:36:21Z</datestamp>
<setSpec>collection:6602</setSpec>
</header>
<header>
<identifier>http://wayback.archive-it.org/6602/*/http://nctr.ca/fr/reports.php</identifier>
<datestamp>2017-05-29T20:46:33Z</datestamp>
<setSpec>collection:6602</setSpec>
</header>
<header>
<identifier>http://wayback.archive-it.org/6602/*/http://nctr.ca/reports.php</identifier>
<datestamp>2017-06-01T12:33:14Z</datestamp>
<setSpec>collection:6602</setSpec>
</header>
<header>
<identifier>http://wayback.archive-it.org/6602/*/http://news.nationalpost.com/full-comment/clifton-rubenstein-debunking-the-half-truths-and-exaggerations-in-the-truth-and-reconciliation-report</identifier>
<datestamp>2017-04-24T18:28:12Z</datestamp>
<setSpec>collection:6602</setSpec>
</header>
<header>
<identifier>http://wayback.archive-it.org/6602/*/http://news.nationalpost.com/full-comment/conrad-black-canadas-treatment-of-aboriginals-was-shameful-but-it-was-not-genocide</identifier>
<datestamp>2017-04-24T18:28:12Z</datestamp>
<setSpec>collection:6602</setSpec>
</header>
<header>
<identifier>http://wayback.archive-it.org/6602/*/http://news.nationalpost.com/full-comment/rubenstein-clifton-truth-and-reconciliation-report-tells-a-skewed-and-partial-story-of-residential-schools</identifier>
<datestamp>2017-04-24T18:28:12Z</datestamp>
<setSpec>collection:6602</setSpec>
</header>
<header>
<identifier>http://wayback.archive-it.org/6602/*/http://news.nationalpost.com/news/canada/canadian-politics/wynne-apologizes-on-behalf-of-province-for-brutalities-suffered-in-residential-schools/</identifier>
<datestamp>2017-04-24T18:28:12Z</datestamp>
<setSpec>collection:6602</setSpec>
</header>
<header>
<identifier>http://wayback.archive-it.org/6602/*/http://news.nationalpost.com/news/canada/five-of-the-best-and-perhaps-worst/</identifier>
<datestamp>2017-04-24T18:28:12Z</datestamp>
<setSpec>collection:6602</setSpec>
</header>
<header>
<identifier>http://wayback.archive-it.org/6602/*/http://news.nationalpost.com/news/canada/new-heritage-minutes-tackle-some-hard-truths-about-residential-schools-and-treaties-as-part-of-reconciliation/</identifier>
<datestamp>2017-04-24T18:28:16Z</datestamp>
<setSpec>collection:6602</setSpec>
</header>
<header>
<identifier>http://wayback.archive-it.org/6602/*/http://news.nationalpost.com/news/canada/residential-schools-to-blame-for-problems-plaguing-aboriginals-truth-and-reconciliation-commission/</identifier>
<datestamp>2017-04-24T18:28:16Z</datestamp>
<setSpec>collection:6602</setSpec>
</header>
<header>
<identifier>http://wayback.archive-it.org/6602/*/http://news.nationalpost.com/news/canada/skeleton-of-aboriginal-girl-buried-180-years-ago-on-alberta-farm-becomes-unlikely-bridge-builder/</identifier>
<datestamp>2017-04-24T18:28:16Z</datestamp>
<setSpec>collection:6602</setSpec>
</header>
<header>
<identifier>http://wayback.archive-it.org/6602/*/http://news.nationalpost.com/news/canada/the-chief-who-said-no-one-northern-village-rejected-residential-schools-and-built-their-own-instead/</identifier>
<datestamp>2017-04-24T18:28:16Z</datestamp>
<setSpec>collection:6602</setSpec>
</header>
<header>
<identifier>http://wayback.archive-it.org/6602/*/http://news.nationalpost.com/news/canada/where-i-learned-to-fight-and-cheat-and-steal-six-nations-wants-to-save-longest-running-residential-school/</identifier>
<datestamp>2017-04-24T18:28:16Z</datestamp>
<setSpec>collection:6602</setSpec>
</header>
<header>
<identifier>http://wayback.archive-it.org/6602/*/http://noubliepaslesmetis.ca</identifier>
<datestamp>2017-04-25T18:36:22Z</datestamp>
<setSpec>collection:6602</setSpec>
</header>
<header>
<identifier>http://wayback.archive-it.org/6602/*/http://nousetionssiloin.ca</identifier>
<datestamp>2017-04-25T18:36:23Z</datestamp>
<setSpec>collection:6602</setSpec>
</header>
<header>
<identifier>http://wayback.archive-it.org/6602/*/http://o.canada.com/news/national/at-least-4000-aboriginal-children-died-in-residential-schools-commission-finds</identifier>
<datestamp>2017-04-24T18:28:16Z</datestamp>
<setSpec>collection:6602</setSpec>
</header>
<header>
<identifier>http://wayback.archive-it.org/6602/*/http://oblatesinthewest.library.ualberta.ca/eng/impact/indianschools.html</identifier>
<datestamp>2017-04-24T18:28:16Z</datestamp>
<setSpec>collection:6602</setSpec>
</header>
<header>
<identifier>http://wayback.archive-it.org/6602/*/http://oblatesinthewest.library.ualberta.ca/fr/impact/indianschools.html</identifier>
<datestamp>2017-04-25T18:36:24Z</datestamp>
<setSpec>collection:6602</setSpec>
</header>
<header>
<identifier>http://wayback.archive-it.org/6602/*/http://ottawacitizen.com/news/national/high-hopes-for-trudeau-to-act-on-residential-schools-report/</identifier>
<datestamp>2017-04-24T18:28:16Z</datestamp>
<setSpec>collection:6602</setSpec>
</header>
<header>
<identifier>http://wayback.archive-it.org/6602/*/http://ottawacitizen.com/news/national/truth-and-reconciliation-commission-whats-in-the-final-report/</identifier>
<datestamp>2017-04-24T18:28:16Z</datestamp>
<setSpec>collection:6602</setSpec>
</header>
<header>
<identifier>http://wayback.archive-it.org/6602/*/http://ottawacitizen.com/news/politics/truth-seeker-murray-sinclairs-relentless-quest-for-the-truth-about-residential-schools</identifier>
<datestamp>2017-05-11T15:20:57Z</datestamp>
<setSpec>collection:6602</setSpec>
</header>
<header>
<identifier>http://wayback.archive-it.org/6602/*/http://ottawacitizen.com/opinion/columnists/op-ed-indigenous-studies-is-central-to-liberal-arts-education-in-canada/</identifier>
<datestamp>2017-04-24T18:28:16Z</datestamp>
<setSpec>collection:6602</setSpec>
</header>
<header>
<identifier>http://wayback.archive-it.org/6602/*/http://presbyterian.ca/2016/09/15/remembering-chanie-wenjack/</identifier>
<datestamp>2017-04-24T18:28:16Z</datestamp>
<setSpec>collection:6602</setSpec>
</header>
<header>
<identifier>http://wayback.archive-it.org/6602/*/http://presbyterian.ca/healing/</identifier>
<datestamp>2017-04-24T18:28:16Z</datestamp>
<setSpec>collection:6602</setSpec>
</header>
<header>
<identifier>http://wayback.archive-it.org/6602/*/http://projectofheart.ca/</identifier>
<datestamp>2017-04-24T18:28:16Z</datestamp>
<setSpec>collection:6602</setSpec>
</header>
<header>
<identifier>http://wayback.archive-it.org/6602/*/http://projetwampum.com/</identifier>
<datestamp>2017-05-11T15:20:51Z</datestamp>
<setSpec>collection:6602</setSpec>
</header>
<header>
<identifier>http://wayback.archive-it.org/6602/*/http://rabble.ca/blogs/bloggers/dennis-gruending/2015/06/truth-and-reconciliation-commission-challenges-canadian-chur/</identifier>
<datestamp>2017-04-24T18:28:12Z</datestamp>
<setSpec>collection:6602</setSpec>
</header>
<header>
<identifier>http://wayback.archive-it.org/6602/*/http://rabble.ca/blogs/bloggers/kairos-canada/2016/03/unlearning-racism-against-indigenous-peoples-one-generation?utm_content=buffer05fb8&amp;utm_medium=social&amp;utm_source=facebook.com&amp;utm_campaign=buffer</identifier>
<datestamp>2017-04-24T18:28:16Z</datestamp>
<setSpec>collection:6602</setSpec>
</header>
<header>
<identifier>http://wayback.archive-it.org/6602/*/http://rabble.ca/news/2015/08/what-fish-have-to-do-truth-and-reconciliation</identifier>
<datestamp>2017-04-24T18:28:19Z</datestamp>
<setSpec>collection:6602</setSpec>
</header>
<header>
<identifier>http://wayback.archive-it.org/6602/*/http://reconciliationcanada.ca/</identifier>
<datestamp>2017-04-24T18:28:19Z</datestamp>
<setSpec>collection:6602</setSpec>
</header>
<header>
<identifier>http://wayback.archive-it.org/6602/*/http://returningtospirit.org</identifier>
<datestamp>2017-04-24T18:28:19Z</datestamp>
<setSpec>collection:6602</setSpec>
</header>
<header>
<identifier>http://wayback.archive-it.org/6602/*/http://secretpath.ca</identifier>
<datestamp>2017-04-24T18:28:19Z</datestamp>
<setSpec>collection:6602</setSpec>
</header>
<header>
<identifier>http://wayback.archive-it.org/6602/*/http://sincmurr.com/</identifier>
<datestamp>2017-04-24T18:28:19Z</datestamp>
<setSpec>collection:6602</setSpec>
</header>
<header>
<identifier>http://wayback.archive-it.org/6602/*/http://speakingmytruth.ca</identifier>
<datestamp>2017-04-24T18:28:19Z</datestamp>
<setSpec>collection:6602</setSpec>
</header>
<header>
<identifier>http://wayback.archive-it.org/6602/*/http://thecanadianencyclopedia.com/en/article/residential-schools/</identifier>
<datestamp>2017-04-24T18:28:19Z</datestamp>
<setSpec>collection:6602</setSpec>
</header>
<header>
<identifier>http://wayback.archive-it.org/6602/*/http://thechildrenremembered.ca/</identifier>
<datestamp>2017-04-24T18:28:19Z</datestamp>
<setSpec>collection:6602</setSpec>
</header>
<header>
<identifier>http://wayback.archive-it.org/6602/*/http://trc.ca</identifier>
<datestamp>2017-04-24T18:28:19Z</datestamp>
<setSpec>collection:6602</setSpec>
</header>
<header>
<identifier>http://wayback.archive-it.org/6602/*/http://umanitoba.ca/cnvr/</identifier>
<datestamp>2017-04-25T18:36:27Z</datestamp>
<setSpec>collection:6602</setSpec>
</header>
<header>
<identifier>http://wayback.archive-it.org/6602/*/http://umanitoba.ca/nctr/</identifier>
<datestamp>2017-04-24T18:28:18Z</datestamp>
<setSpec>collection:6602</setSpec>
</header>
<header>
<identifier>http://wayback.archive-it.org/6602/*/http://walkingwithoursisters.ca/</identifier>
<datestamp>2017-04-24T18:28:18Z</datestamp>
<setSpec>collection:6602</setSpec>
</header>
<header>
<identifier>http://wayback.archive-it.org/6602/*/http://weweresofaraway.ca</identifier>
<datestamp>2017-04-24T18:28:18Z</datestamp>
<setSpec>collection:6602</setSpec>
</header>
<header>
<identifier>http://wayback.archive-it.org/6602/*/http://wherearethechildren.ca/</identifier>
<datestamp>2017-04-24T18:28:18Z</datestamp>
<setSpec>collection:6602</setSpec>
</header>
<header>
<identifier>http://wayback.archive-it.org/6602/*/http://witnessblanket.ca</identifier>
<datestamp>2017-04-24T18:28:18Z</datestamp>
<setSpec>collection:6602</setSpec>
</header>
<header>
<identifier>http://wayback.archive-it.org/6602/*/http://www.aadnc-aandc.gc.ca/eng/1100100015576/1100100015577</identifier>
<datestamp>2017-04-24T18:28:18Z</datestamp>
<setSpec>collection:6602</setSpec>
</header>
<header>
<identifier>http://wayback.archive-it.org/6602/*/http://www.aadnc-aandc.gc.ca/eng/1100100015594/1100100015595/</identifier>
<datestamp>2017-04-24T18:28:19Z</datestamp>
<setSpec>collection:6602</setSpec>
</header>
<header>
<identifier>http://wayback.archive-it.org/6602/*/http://www.aadnc-aandc.gc.ca/fra/1100100015576/1100100015577</identifier>
<datestamp>2017-04-25T18:36:27Z</datestamp>
<setSpec>collection:6602</setSpec>
</header>
<header>
<identifier>http://wayback.archive-it.org/6602/*/http://www.aadnc-aandc.gc.ca/fra/1100100015594/1100100015595/</identifier>
<datestamp>2017-04-25T18:36:29Z</datestamp>
<setSpec>collection:6602</setSpec>
</header>
<header>
<identifier>http://wayback.archive-it.org/6602/*/http://www.afn.ca/en/policy-areas/indian-residential-schools</identifier>
<datestamp>2017-04-24T18:28:19Z</datestamp>
<setSpec>collection:6602</setSpec>
</header>
<header>
<identifier>http://wayback.archive-it.org/6602/*/http://www.afn.ca/fr/secteurs-de-politique/pensionnats-indiens/</identifier>
<datestamp>2017-04-25T18:36:29Z</datestamp>
<setSpec>collection:6602</setSpec>
</header>
<header>
<identifier>http://wayback.archive-it.org/6602/*/http://www.ahf.ca/</identifier>
<datestamp>2017-04-24T18:28:19Z</datestamp>
<setSpec>collection:6602</setSpec>
</header>
<resumptionToken cursor="0" completeListSize="263">100,100,oai_dc,,</resumptionToken>
</ListIdentifiers>
</OAI-PMH>
